10020	thi ảnh	photography
10020	máy ảnh cơ	photography
10020	lens	photography
10020	chân máy ảnh	photography
10020	hội nhiếp ảnh Tp.HCM	photography
10020	digital camera  world	photography
10020	Popular Photography	photography
10020	Photo district news	photography
10020	Digital Photographer	photography
10020	Outdoor Photographer	photography
10020	Photoshop creative	photography
10020	Hunger	photography
10020	Advanced Photoshop	photography
10020	Professional Photographer	photography
