14020	Asia’s Best Employer Brand Awards	business	Award
14020	Amancio Ortega	business	Businessman
14020	Anthony Tan	business	Businessman
14020	Bill Gate	business	Businessman
14020	Elon Musk	business	Businessman
14020	Erik Paulsson	business	Businessman
14020	Jeff Bezos	business	Businessman
14020	Johnathan Hạnh Nguyễn	business	Businessman
14020	Kevin O'Leary	business	Businessman
14020	Laurene Powell Jobs	business	Businessman
14020	Mai Kiều Liên	business	Businessman
14020	Marc Benioff	business	Businessman
14020	Margaret Whitman	business	Businessman
14020	Mark Cuban	business	Businessman
14020	Mark Zuckerberg	business	Businessman
14020	Melinda Gates	business	Businessman
14020	Michael Dell	business	Businessman
14020	Phạm Nhật Vượng	business	Businessman
14020	Quốc Cường Gia Lai	business	Businessman
14020	Shark Dũng	business	Businessman
14020	Shark Dzung Nguyễn	business	Businessman
14020	Shark Hưng	business	Businessman
14020	Shark Linh	business	Businessman
14020	Shark Nguyễn Ngọc Thủy	business	Businessman
14020	Shark Nguyễn Thanh Việt	business	Businessman
14020	Shark Nguyễn Xuân Phú	business	Businessman
14020	Shark Phạm Thanh Hưng	business	Businessman
14020	Shark Phú	business	Businessman
14020	Shark Thái Vân Linh	business	Businessman
14020	Shark Thủy	business	Businessman
14020	Shark Việt	business	Businessman
14020	Shark Vương	business	Businessman
14020	Steve Ballmer	business	Businessman
14020	Steve Jobs	business	Businessman
14020	Steve Siebold	business	Businessman
14020	Steve Wozniak	business	Businessman
14020	Tim Cook	business	Businessman
14020	Trương Gia Bình	business	Businessman
14020	Warren Buffett	business	Businessman
14020	Alibaba	business	Company
14020	Amersham Industries	business	Company
14020	Amway Việt Nam	business	Company
14020	Apple	business	Company
14020	Ba Huân	business	Company
14020	Bamboo Airways	business	Company
14020	Big C Việt Nam	business	Company
14020	BigC	business	Company
14020	Central Group	business	Company
14020	Central Group Việt Nam	business	Company
14020	ComfortDelgro Savico Taxi	business	Company
14020	công ty cổ phần đầu tư và công nghiệp tân tạo	business	Company
14020	Công ty cổ phần Everpia	business	Company
14020	Công ty cổ phần FPT	business	Company
14020	Công ty cổ phần Gemadept	business	Company
14020	công ty cổ phần nhiệt điện phả lại	business	Company
14020	công ty cổ phần tập đoàn đại dương	business	Company
14020	công ty cổ phần tập đoàn masan	business	Company
14020	Công ty Cổ phần Vinaconex	business	Company
14020	Công ty Cổ phần VINAFCO	business	Company
14020	Công ty cổ phần Vinpearl	business	Company
14020	Công ty Musashi Seimitsu	business	Company
14020	Công ty Sứ Thiên Thanh	business	Company
14020	Công ty Tâm Thiện Tâm	business	Company
14020	Công ty Taxi Việt Nam	business	Company
14020	Công ty TNHH Vietnam Beverage	business	Company
14020	Công ty VBĐQ Sài Gòn	business	Company
14020	Country Garden Holdings Co Ltd	business	Company
14020	CTCP Bóng Đèn Điện Quang	business	Company
14020	CTCP Cảng Nha Trang	business	Company
14020	CTCP Cao su Đồng Phú	business	Company
14020	CTCP Cao Su Phước Hòa	business	Company
14020	CTCP Chế tạo thuốc Taisho	business	Company
14020	CTCP Dầu khí Thái Dương	business	Company
14020	CTCP Đầu tư Hải Phát	business	Company
14020	CTCP Đầu tư LDG	business	Company
14020	CTCP Đầu Tư Nam Long	business	Company
14020	CTCP Dược Phẩm Bến Tre	business	Company
14020	CTCP Dược Phẩm Cửu Long	business	Company
14020	CTCP Đường Quảng Ngãi	business	Company
14020	CTCP FPT	business	Company
14020	CTCP Gemadept	business	Company
14020	CTCP Hàng không Vietjet	business	Company
14020	CTCP Hóa An	business	Company
14020	CTCP Hoàng Anh Gia Lai	business	Company
14020	CTCP LICOGI 16	business	Company
14020	CTCP Nam Việt	business	Company
14020	CTCP Nhiệt điện Bà Rịa	business	Company
14020	CTCP Nhựa Bình Minh	business	Company
14020	CTCP Nhựa Đồng Nai	business	Company
14020	CTCP Ô tô Trường Hải	business	Company
14020	CTCP Phú Tài	business	Company
14020	CTCP PIV	business	Company
14020	CTCP Sợi Thế Kỷ	business	Company
14020	CTCP Sữa Việt Nam	business	Company
14020	CTCP Tập đoàn Đất Xanh	business	Company
14020	CTCP Tập Đoàn FLC	business	Company
14020	CTCP Tập Đoàn Hà Đô	business	Company
14020	CTCP Tập đoàn Hòa Phát	business	Company
14020	CTCP Tập Đoàn Hoa Sen	business	Company
14020	CTCP Tập đoàn KIDO	business	Company
14020	CTCP Tập đoàn Thiên Long	business	Company
14020	CTCP Tập đoàn Yeah1	business	Company
14020	CTCP Thép POMINA	business	Company
14020	CTCP Thiết bị điện	business	Company
14020	CTCP Thủy Điện Miền Trung	business	Company
14020	CTCP Transimex	business	Company
14020	CTCP Văn hóa Phương Nam	business	Company
14020	CTCP Vinhomes	business	Company
14020	CTCP Xây dựng Coteccons	business	Company
14020	đạm phú mỹ	business	Company
14020	Dệt May Việt Nam	business	Company
14020	Dược Bến Tre	business	Company
14020	Dược Hậu Giang	business	Company
14020	Dược Lâm Đồng	business	Company
14020	FPT Retail	business	Company
14020	FPT Shop	business	Company
14020	GIC Pte Ltd	business	Company
14020	Gỗ Trường Thành	business	Company
14020	Grab Việt Nam	business	Company
14020	HAGL Agrico	business	Company
14020	Hòa Phát	business	Company
14020	Hoa Sen Group	business	Company
14020	Hoàng Anh Gia Lai	business	Company
14020	Hoàng Yến Group	business	Company
14020	Hưng Thịnh Incons	business	Company
14020	Mondelez Kinh Đô	business	Company
14020	Nguyễn Kim Group	business	Company
14020	Nhựa Bình Minh	business	Company
14020	Nhựa Đồng Nai	business	Company
14020	Nhựa Miền Trung	business	Company
14020	Nhựa Tiền Phong	business	Company
14020	Nielsen Việt Nam	business	Company
14020	Nước giải khát Sài Gòn	business	Company
14020	pepsico	business	Company
14020	petrolimex	business	Company
14020	PV Oil	business	Company
14020	Samsung Electronics	business	Company
14020	Sen Đỏ	business	Company
14020	Shanghai Composite	business	Company
14020	Sứ Thiên Thanh	business	Company
14020	Sun Group	business	Company
14020	Sun Life Việt Nam	business	Company
14020	Tập Đoàn Alibaba	business	Company
14020	tập đoàn dầu khí việt nam	business	Company
14020	tập đoàn điện lực việt nam	business	Company
14020	Tập đoàn Hòa Phát	business	Company
14020	Tập đoàn Kido	business	Company
14020	Tập đoàn Microsoft	business	Company
14020	tập đoàn NextTech	business	Company
14020	Tập đoàn PAN	business	Company
14020	Tập đoàn Sojitz	business	Company
14020	Tập đoàn SUNHOUSE	business	Company
14020	tập đoàn tân hiệp phát	business	Company
14020	Tập đoàn ThaiBev	business	Company
14020	Tập đoàn Trung Nguyên	business	Company
14020	Tập đoàn Viettel	business	Company
14020	Tập Đoàn Vingroup	business	Company
14020	Tập đoàn Virgin	business	Company
14020	Tập đoàn Whitbread Plc	business	Company
14020	Tập đoàn Yeah1	business	Company
14020	Tencent	business	Company
14020	TH True Milk	business	Company
14020	Tiger Global	business	Company
14020	Tổng công ty bia	business	Company
14020	Tổng công ty Bia-Rượu-Nước giải khát Hà Nội	business	Company
14020	Tổng công ty Bia-Rượu-Nước giải khát Sài Gòn	business	Company
14020	tổng công ty cổ phần dịch vụ kỹ thuật dầu khí	business	Company
14020	tổng công ty cổ phần xây lắp dầu khí việt nam	business	Company
14020	tổng công ty đầu tư và kinh doanh vốn nhà nước	business	Company
14020	tổng công ty hàng hải việt nam	business	Company
14020	tổng công ty hóa chất việt nam	business	Company
14020	Tổng công ty Thuốc lá Việt Nam	business	Company
14020	tổng công ty viễn thông quân đội	business	Company
14020	tổng công ty xuất nhập khẩu và xây dựng	business	Company
14020	Tổng CTCP Bia	business	Company
14020	tổng ctcp khoan và dịch vụ khoan dầu khí	business	Company
14020	TTC Land	business	Company
14020	TTC Sugar	business	Company
14020	Unilever	business	Company
14020	vinamilk	business	Company
14020	vissan	business	Company
14020	Business Insider	business	Magazine
14020	Tạp chí Forbes	business	Magazine
14020	Tạp chí Fortune	business	Magazine
14020	Amazon Global Selling	business	
14020	Amazon Web Services	business	
14020	bảo hộ mậu dịch	business	
14020	bình ổn thị trường	business	
14020	Chìa Khóa Thành Công	business	
14020	chiến lược xuất khẩu	business	
14020	Chính sách Thuế	business	
14020	Cộng đồng doanh nghiệp	business	
14020	Cộng đồng Doanh Nhân	business	
14020	công nghiệp	business	
14020	công nghiệp chế biến	business	
14020	công nghiệp ôtô	business	
14020	công ty khởi nghiệp	business	
14020	diễn đàn kinh tế thế giới	business	
14020	Digital Marketing	business	
14020	doanh nghiệp có vốn đầu tư nước ngoài	business	
14020	doanh nghiệp đầu mối	business	
14020	doanh nghiệp dệt may	business	
14020	doanh nghiệp Mỹ	business	
14020	doanh nghiệp nhà nước	business	
14020	doanh nghiệp nhập khẩu	business	
14020	doanh nghiệp tư nhân	business	
14020	doanh nghiệp Việt	business	
14020	doanh nghiệp việt nam	business	
14020	doanh nghiệp vừa và nhỏ	business	
14020	doanh nghiệp xuất khẩu	business	
14020	doanh nghiệp xuất nhập khẩu	business	
14020	Doanh nhân trẻ	business	
14020	Doing Business	business	
14020	Doing Business 2019	business	
14020	Dự án khởi nghiệp	business	
14020	entrepreneur	business	
14020	Forbes 400	business	
14020	Forbes Việt Nam	business	
14020	GDP	business	
14020	hạn ngạch nhập khẩu	business	
14020	Hàng hóa xuất khẩu	business	
14020	Harvard Business Review	business	
14020	Hệ Thống Phân Phối	business	
14020	Hệ thống siêu thị	business	
14020	Hiệp định CPTPP	business	
14020	Hiệp định Đối tác	business	
14020	Hiệp định EVFTA	business	
14020	Hiệp định FTA	business	
14020	hiệp định thương mại	business	
14020	hiệp định thương mại tự do	business	
14020	Hiệp định VPA/FLEGT	business	
14020	hiệp hội cà phê ca cao việt nam	business	
14020	hiệp hội các nhà sản xuất ôtô việt nam	business	
14020	hiệp hội da giày việt nam	business	
14020	Hiệp hội điều Việt Nam	business	
14020	hiệp hội doanh nghiệp	business	
14020	hiệp hội doanh nghiệp châu âu	business	
14020	Hiệp hội Giấy	business	
14020	Hiệp hội Gỗ	business	
14020	hiệp hội nhựa việt nam	business	
14020	hiệp hội thép việt nam	business	
14020	Hỗ Trợ Doanh nghiệp	business	
14020	Hội nghị gạo thế giới	business	
14020	Hội nghị Xúc tiến	business	
14020	Hội nhập quốc tế	business	
14020	Hội Nông dân	business	
14020	Hội Nông dân Việt Nam	business	
14020	Hội nước mắm Phú Quốc	business	
14020	Hợp tác xã nông nghiệp	business	
14020	HTX Nông nghiệp	business	
14020	Khởi nghiệp Saigon Times	business	
14020	kiểm toán	business	
14020	kim ngạch nhập khẩu	business	
14020	kim ngạch thương mại	business	
14020	Kim ngạch XNK	business	
14020	kim ngạch xuất khẩu	business	
14020	KINH DOANH ONLINE	business	
14020	kinh doanh vận tải	business	
14020	Kinh doanh Việt Nam	business	
14020	Kinh tế ASEAN	business	
14020	Kinh tế Số	business	
14020	kinh tế tập thể	business	
14020	Kinh Tế Trung ương	business	
14020	Kinh tế tư nhân	business	
14020	kinh tế vĩ mô	business	
14020	Kinh tế-Xã hội	business	
14020	Liên Minh HTX Việt Nam	business	
14020	logistic	business	
14020	Marketing Online	business	
14020	ngành Dệt	business	
14020	ngành Dệt May	business	
14020	ngành Dệt may Việt Nam	business	
14020	ngành Hải quan	business	
14020	ngành Nông nghiệp	business	
14020	ngành thép	business	
14020	nghiên cứu thị trường	business	
14020	Nhà đầu tư thiên thần	business	
14020	Nhà máy Rượu Hà Nội	business	
14020	nhập khẩu Gạo	business	
14020	nhập khẩu ô tô	business	
14020	Nhiệt điện than	business	
14020	Nơi Làm Việc Tốt Nhất	business	
14020	Nông nghiệp hữu cơ	business	
14020	Nông nghiệp sạch	business	
14020	OPEC	business	
14020	Phát triển công nghiệp	business	
14020	Phát triển nông nghiệp	business	
14020	Phát triển nông thôn	business	
14020	Phụ Nữ Khởi nghiệp	business	
14020	Quản lý Thuế	business	
14020	Quản trị rủi ro	business	
14020	Saigon Innovation Hub	business	
14020	Shark Tank	business	
14020	Shark Tank Việt Nam	business	
14020	Starbucks	business	
14020	Start Up	business	
14020	Tập Đoàn Bán Lẻ	business	
14020	thị trường bất động sản	business	
14020	thị trường chứng khoán	business	
14020	thị trường ô tô	business	
14020	Thương mại Mỹ	business	
14020	thương mại Mỹ-Trung	business	
14020	Thủy Sản An Giang	business	
14020	Thủy Sản Hùng Vương	business	
14020	Thủy sản Minh Phú	business	
14020	Trung Nguyên LEGEND	business	
14020	Xuất khẩu Dầu	business	
14020	Xuất khẩu gạo	business	
14020	xuất khẩu thủy sản	business	
14020	Ý tưởng khởi nghiệp	business	
