Category Id	Keyword Id	Keyword
1020	1020000	Accu-Chek
1020	1020001	Acon
1020	1020002	Akiko
1020	1020003	ALPK2
1020	1020004	Aoberst
1020	1020005	BenQ
1020	1020006	Beurer
1020	1020007	Closeup
1020	1020008	Colgate
1020	1020009	Diana
1020	1020010	Elip
1020	1020011	Fora
1020	1020012	Fujiiryoki
1020	1020013	Harima
1020	1020014	Hubdic
1020	1020015	Inada
1020	1020016	Kingsport
1020	1020017	Kotex
1020	1020018	Laica
1020	1020019	Lanaform
1020	1020020	Lifebouy
1020	1020021	Lucass
1020	1020022	Maxcare
1020	1020023	Medilife
1020	1020024	Medtronic
1020	1020025	Microlife
1020	1020026	Mimitakara
1020	1020027	Okasa
1020	1020028	OKIA
1020	1020029	Omron
1020	1020030	P/S
1020	1020031	Philips
1020	1020032	Phonak
1020	1020033	Rio Beauty
1020	1020034	Rionet
1020	1020035	Siemens
1020	1020036	Tanita
1020	1020037	Terumo
1020	1020038	Tokuyo
1020	1020039	Trustlex
1020	1020040	Uright
1020	1020041	Xiaomi
1020	1020042	xe lăn điện
1020	1020043	xe lăn tay
1020	1020044	áo chống nắng
1020	1020045	băng vệ sinh
1020	1020046	bồn ngâm chân
1020	1020047	bồn ngâm chân hồng ngoại
1020	1020048	cân điện tử
1020	1020049	cân sức khỏe Camry
1020	1020050	cân sức khỏe Omron
1020	1020051	cốc nguyệt san
1020	1020052	đá nóng massage
1020	1020053	đai chống gù lưng
1020	1020054	đai thắt lưng
1020	1020055	đệm massage
1020	1020056	đồng hồ sức khỏe
1020	1020057	dung dịch vệ sinh phụ nữ
1020	1020058	gậy cho người già
1020	1020059	ghế vệ sinh
1020	1020060	giảm rụng tóc
1020	1020061	gối massage
1020	1020062	hỗ trợ mọc tóc
1020	1020063	hỗ trợ tăng chiều cao
1020	1020064	kem đánh răng
1020	1020065	khẩu trang y tế
1020	1020066	kính bảo hộ lao động
1020	1020067	kính cận
1020	1020068	kính lão
1020	1020069	kính loạn
1020	1020070	kính viễn
1020	1020071	máy chạy bộ
1020	1020072	máy đấm lưng
1020	1020073	máy đo bước chân
1020	1020074	máy đo đường huyết
1020	1020075	máy đo huyết áp
1020	1020076	máy đo nhịp tim
1020	1020077	máy đo nồng độ oxy trong máu
1020	1020078	máy hút đờm
1020	1020079	máy khí dung mũi họng
1020	1020080	máy khí dung mũi họng Maxcare
1020	1020081	máy lọc không khí
1020	1020082	máy lọc nước
1020	1020083	máy masage chân
1020	1020084	máy massage cầm tay
1020	1020085	máy massage Omrron
1020	1020086	máy massage toàn thân
1020	1020087	máy rung giảm mỡ bụng
1020	1020088	máy tăm nước
1020	1020089	máy trợ thính
1020	1020090	máy trợ thính không dây
1020	1020091	máy xông khí dung Omron
1020	1020092	máy xông mũi họng
1020	1020093	miếng dán xung điện
1020	1020094	nhiệt kế
1020	1020095	nhiệt kế hồng ngoại
1020	1020096	nước muối súc miệng
1020	1020097	nước rửa tay khô
1020	1020098	nước súc miệng
1020	1020099	ống nghe
1020	1020100	que thử đường huyết
1020	1020101	thảm đá nóng
1020	1020102	trị hói đầu
1020	1020103	túi chườm nóng lạnh
1020	1020104	túi sưởi ấm
1020	1020105	váy chống nắng
1020	1020106	vớ y khoa
1020	1020107	xà phòng diệt khuẩn
1020	1020108	xe lăn
1020	1020109	xe lăn đa năng
