Category Id	Keyword Id	Keyword
11010	11010000	3 miền
11010	11010001	Ajinomoto
11010	11010002	Chinsu
11010	11010003	Hảo Hảo 
11010	11010004	Hỷ Lâm Môn
11010	11010005	Jolibee
11010	11010006	KFC
11010	11010007	Kinh Đô
11010	11010008	Knor
11010	11010009	Lang farm
11010	11010010	Miliket
11010	11010011	Nam Dương
11010	11010012	Neptune
11010	11010013	Thực phẩm Cầu tre
11010	11010014	Viffon
11010	11010015	Vissan
11010	11010016	ba rọi
11010	11010017	bạch tuộc nướng
11010	11010018	baking powder
11010	11010019	bánh bao
11010	11010020	bánh bò
11010	11010021	bánh bông lan
11010	11010022	bánh canh
11010	11010023	bánh chay
11010	11010024	bánh chưng
11010	11010025	bánh chuối
11010	11010026	bánh cốm
11010	11010027	bánh Crepe
11010	11010028	bánh cuốn
11010	11010029	bánh đa
11010	11010030	bánh dẻo
11010	11010031	bánh flan
11010	11010032	bánh gạo
11010	11010033	bánh gạo cay
11010	11010034	bánh giầy
11010	11010035	bánh gối
11010	11010036	bánh kẹp
11010	11010037	bánh khoai
11010	11010038	bánh khoái
11010	11010039	bánh khúc
11010	11010040	bánh mì
11010	11010041	bánh mì nướng
11010	11010042	bánh mì Phượng
11010	11010043	bánh nếp
11010	11010044	bánh nướng
11010	11010045	bánh phồng tôm
11010	11010046	bánh quy
11010	11010047	bánh Sandwich
11010	11010048	bánh su
11010	11010049	bánh tét
11010	11010050	bánh tôm
11010	11010051	bánh tráng
11010	11010052	bánh trôi
11010	11010053	bánh trung thu
11010	11010054	bánh Trung Thu handmade
11010	11010055	bánh ướt
11010	11010056	bánh xèo
11010	11010057	bánh xốp
11010	11010058	bào ngư
11010	11010059	bắp chuối
11010	11010060	bí đao
11010	11010061	bí đỏ
11010	11010062	bí ngòi
11010	11010063	bí xanh
11010	11010064	bít tết
11010	11010065	bơ
11010	11010066	bơ đậu phộng
11010	11010067	bò Mỹ
11010	11010068	bò nướng
11010	11010069	bò Wagyu
11010	11010070	bông cải xanh
11010	11010071	bông điên điển
11010	11010072	bông lan
11010	11010073	bông súng
11010	11010074	bột báng
11010	11010075	bột bánh dẻo
11010	11010076	bột canh
11010	11010077	bột gạo
11010	11010078	bột lọc
11010	11010079	bột mì
11010	11010080	bột nêm
11010	11010081	bột nếp
11010	11010082	bột ngô
11010	11010083	bột ngọt
11010	11010084	bột nhão
11010	11010085	bột nở
11010	11010086	bột sắn
11010	11010087	bột sắn dây
11010	11010088	bún
11010	11010089	bún bò
11010	11010090	bún bò huế
11010	11010091	bún cá
11010	11010092	bún chả
11010	11010093	bún mắm
11010	11010094	bún ốc
11010	11010095	bún riêu
11010	11010096	bún tàu
11010	11010097	bún thang
11010	11010098	bưởi da xanh
11010	11010099	búp chè
11010	11010100	cà chua
11010	11010101	cá cơm
11010	11010102	cá diếc
11010	11010103	cá đồng
11010	11010104	cá đuối
11010	11010105	cá hấp
11010	11010106	cá hồi
11010	11010107	cá lóc
11010	11010108	cá mòi
11010	11010109	cà muối
11010	11010110	cá ngừ
11010	11010111	cá ngựa
11010	11010112	cá nục
11010	11010113	cá quả
11010	11010114	cà ri
11010	11010115	cá rô
11010	11010116	cà rốt
11010	11010117	cá sặc
11010	11010118	cá thát lát
11010	11010119	cá trắm
11010	11010120	cá trê
11010	11010121	cá trích
11010	11010122	cá tươi
11010	11010123	cá tuyết
11010	11010124	cải bắp
11010	11010125	cải bẹ
11010	11010126	cải bó xôi
11010	11010127	cải ngọt
11010	11010128	cải thảo
11010	11010129	cải thìa
11010	11010130	cải trắng
11010	11010131	cải xanh
11010	11010132	cải xoong
11010	11010133	cần tây
11010	11010134	canh chua
11010	11010135	cao lầu
11010	11010136	chả bò
11010	11010137	chà bông
11010	11010138	chả cá
11010	11010139	chả giò
11010	11010140	chả lụa
11010	11010141	chả nướng
11010	11010142	chả quế
11010	11010143	chả rươi
11010	11010144	chân gà
11010	11010145	chân giò
11010	11010146	chanh leo
11010	11010147	chanh tươi
11010	11010148	cháo sườn
11010	11010149	cháo trai
11010	11010150	chè bưởi
11010	11010151	chè đỗ đen
11010	11010152	chè đỗ xanh
11010	11010153	chè hạt
11010	11010154	chè khoai
11010	11010155	chè sen
11010	11010156	chè thập cẩm
11010	11010157	cốm
11010	11010158	cơm cháy
11010	11010159	cơm chiên
11010	11010160	cơm cuộn
11010	11010161	cơm lam
11010	11010162	cốm làng vòng
11010	11010163	cơm rang
11010	11010164	cơm trắng
11010	11010165	con cá
11010	11010166	củ cải
11010	11010167	củ gừng
11010	11010168	củ hành
11010	11010169	củ hành tây
11010	11010170	củ Khoai Tây
11010	11010171	củ tỏi
11010	11010172	cua
11010	11010173	cua bể
11010	11010174	cua Cà Mau
11010	11010175	da heo
11010	11010176	dầu ăn
11010	11010177	dầu ăn Cái Lân
11010	11010178	dầu ăn Tường An
11010	11010179	dầu đậu nành Simply
11010	11010180	đậu đen
11010	11010181	đậu đỏ
11010	11010182	dầu dừa
11010	11010183	dầu giấm
11010	11010184	đậu hà lan
11010	11010185	dầu hào
11010	11010186	dầu mè
11010	11010187	đậu nành
11010	11010188	dầu ôliu
11010	11010189	dầu phộng
11010	11010190	đậu phộng
11010	11010191	đậu phụ
11010	11010192	dâu tây
11010	11010193	dầu vừng
11010	11010194	đậu xanh
11010	11010195	diếp cá
11010	11010196	Dim Sum
11010	11010197	dọc mùng
11010	11010198	đông trùng hạ thảo
11010	11010199	đu đủ xanh
11010	11010200	dưa
11010	11010201	dưa chua
11010	11010202	dưa chuột
11010	11010203	dưa góp
11010	11010204	dưa leo
11010	11010205	dừa nạo
11010	11010206	dưa Pepino
11010	11010207	đùi gà
11010	11010208	đường Đen
11010	11010209	đường nâu
11010	11010210	đường phèn
11010	11010211	đường phên
11010	11010212	đường thốt nốt
11010	11010213	đường trắng
11010	11010214	gà ác
11010	11010215	gà nướng
11010	11010216	gà quay
11010	11010217	gà rán
11010	11010218	gạch cua
11010	11010219	gan lợn
11010	11010220	gạo
11010	11010221	gạo lứt
11010	11010222	gạo nếp
11010	11010223	gạo sạch
11010	11010224	gạo tẻ
11010	11010225	giá sống
11010	11010226	giăm bông
11010	11010227	giấm gạo
11010	11010228	giấm táo
11010	11010229	giấm trắng
11010	11010230	giò sống
11010	11010231	giò thủ
11010	11010232	gỏi cá
11010	11010233	gỏi cuốn
11010	11010234	gừng tươi
11010	11010235	há cảo
11010	11010236	hải sản
11010	11010237	hàn the
11010	11010238	hành củ
11010	11010239	hành hoa
11010	11010240	hành khô
11010	11010241	hành lá
11010	11010242	hạnh nhân
11010	11010243	hành phi
11010	11010244	hành tây
11010	11010245	hạt dẻ
11010	11010246	hạt điều
11010	11010247	hạt lựu
11010	11010248	hạt nêm
11010	11010249	hạt sen
11010	11010250	hạt tiêu
11010	11010251	hàu
11010	11010252	heavy cream
11010	11010253	hoa chuối
11010	11010254	hoa hồi
11010	11010255	hoa quả
11010	11010256	hoành thánh
11010	11010257	hồng Đà Lạt
11010	11010258	hồng giòn
11010	11010259	hủ tiếu
11010	11010260	hủ tiếu Nam Vang
11010	11010261	húng quế
11010	11010262	kem tươi
11010	11010263	kem whipping
11010	11010264	khô gà
11010	11010265	khoai lang
11010	11010266	khoai môn
11010	11010267	khoai sọ
11010	11010268	khoai tây
11010	11010269	khoai tây chiên
11010	11010270	kinh giới
11010	11010271	lá chanh
11010	11010272	lá chuối
11010	11010273	lá đinh lăng
11010	11010274	lá dong
11010	11010275	lá lốt
11010	11010276	lá tía tô
11010	11010277	lạp xưởng
11010	11010278	lạp xưởng tươi
11010	11010279	lẩu bò
11010	11010280	lẩu gà
11010	11010281	lẩu mắm
11010	11010282	lẩu thái
11010	11010283	lòng gà
11010	11010284	long nhãn
11010	11010285	lườn gà
11010	11010286	Lựu
11010	11010287	mắm cá linh
11010	11010288	mắm cái
11010	11010289	mắm nêm
11010	11010290	mắm ruốc
11010	11010291	mắm tép
11010	11010292	măng cụt
11010	11010293	măng khô
11010	11010294	măng tươi
11010	11010295	mật ong
11010	11010296	mè đen
11010	11010297	mề gà
11010	11010298	mè trắng
11010	11010299	men nở
11010	11010300	mì chính
11010	11010301	mì quảng
11010	11010302	mì Ramen
11010	11010303	mì Udon
11010	11010304	mì xào
11010	11010305	miến trộn
11010	11010306	miến xào
11010	11010307	mộc nhĩ
11010	11010308	móng giò
11010	11010309	mồng tơi
11010	11010310	mực
11010	11010311	muối ớt
11010	11010312	muối tiêu
11010	11010313	muối tinh
11010	11010314	muối trắng
11010	11010315	muối vừng
11010	11010316	mướp đắng
11010	11010317	mướp hương
11010	11010318	mướp Nhật
11010	11010319	Musang King
11010	11010320	mứt
11010	11010321	mứt bí
11010	11010322	Mỳ Ý
11010	11010323	na Đài Loan
11010	11010324	nạc vai
11010	11010325	Nấm đông cô
11010	11010326	nấm hương
11010	11010327	nấm kim châm
11010	11010328	nấm linh chi
11010	11010329	nấm Matsutake
11010	11010330	nấm rơm
11010	11010331	nấm tươi
11010	11010332	nem chua
11010	11010333	nem chua rán
11010	11010334	nem hải sản
11010	11010335	nem lụi
11010	11010336	nem nướng
11010	11010337	nem rán
11010	11010338	nghệ tây
11010	11010339	ngò rí
11010	11010340	ngũ cốc
11010	11010341	nha đam
11010	11010342	nhân sâm
11010	11010343	nhím biển
11010	11010344	nho Nhật
11010	11010345	nho Ruby Roman
11010	11010346	nước mắm
11010	11010347	nước mắm Nam Ngư
11010	11010348	nước tương
11010	11010349	ô liu
11010	11010350	ốc hương
11010	11010351	ốc vòi voi
11010	11010352	ớt
11010	11010353	ớt bột
11010	11010354	ớt chuông
11010	11010355	ớt đà lạt
11010	11010356	Ớt Đỏ
11010	11010357	ớt hiểm
11010	11010358	ớt khô
11010	11010359	ớt sừng
11010	11010360	pa tê
11010	11010361	pasta
11010	11010362	phở bò
11010	11010363	phở cuốn
11010	11010364	phở gà
11010	11010365	phô mai
11010	11010366	pho mát
11010	11010367	phở Tàu Bay
11010	11010368	pizza
11010	11010369	quả bưởi
11010	11010370	quả Chuối
11010	11010371	quả óc chó
11010	11010372	quả sung
11010	11010373	rau Bina
11010	11010374	rau cần
11010	11010375	rau câu
11010	11010376	rau đắng
11010	11010377	rau đay
11010	11010378	rau dền
11010	11010379	rau diếp
11010	11010380	rau húng
11010	11010381	rau luộc
11010	11010382	rau má
11010	11010383	rau mùi
11010	11010384	rau mùi tây
11010	11010385	rau ngổ
11010	11010386	rau ngót
11010	11010387	rau quế
11010	11010388	rau răm
11010	11010389	rau sống
11010	11010390	rau thì là
11010	11010391	rau thơm
11010	11010392	rau xà lách
11010	11010393	rong biển
11010	11010394	sa tế
11010	11010395	sâm
11010	11010396	sashimi
11010	11010397	sầu riêng
11010	11010398	sò
11010	11010399	sò điệp
11010	11010400	sò lông
11010	11010401	socola
11010	11010402	sốt mayonnaise
11010	11010403	su hào
11010	11010404	sủi cảo
11010	11010405	sườn lợn
11010	11010406	súp gà
11010	11010407	súp lơ
11010	11010408	súp lơ xanh
11010	11010409	sushi
11010	11010410	tâm sen
11010	11010411	táo mật Nhật Bản
11010	11010412	táo tàu
11010	11010413	thạch dừa
11010	11010414	thịt
11010	11010415	thịt ba chỉ
11010	11010416	thịt băm
11010	11010417	thịt bắp
11010	11010418	thịt bê
11010	11010419	thịt bò
11010	11010420	thịt cá
11010	11010421	thịt dê
11010	11010422	thịt gà
11010	11010423	thịt lợn
11010	11010424	thịt mông
11010	11010425	thịt nạc
11010	11010426	thịt nguội
11010	11010427	thịt nướng
11010	11010428	thịt quay
11010	11010429	thịt sườn
11010	11010430	thịt tôm
11010	11010431	thịt ức
11010	11010432	thịt vai
11010	11010433	thịt viên
11010	11010434	thịt xông khói
11010	11010435	tía tô
11010	11010436	tiêu bột
11010	11010437	tiêu hồng
11010	11010438	tiêu sọ
11010	11010439	tinh bột nghệ
11010	11010440	tỏi
11010	11010441	tỏi đen
11010	11010442	tỏi khô
11010	11010443	tỏi Lý Sơn
11010	11010444	tỏi tây
11010	11010445	tôm
11010	11010446	tôm càng
11010	11010447	tôm đất
11010	11010448	tôm hùm
11010	11010449	tôm khô
11010	11010450	tôm sú
11010	11010451	trái bầu
11010	11010452	trái cây sấy
11010	11010453	trái mãng cầu
11010	11010454	trứng cá
11010	11010455	trứng gà
11010	11010456	trứng muối
11010	11010457	trứng vịt
11010	11010458	tương ớt
11010	11010459	ức gà
11010	11010460	vải thiều
11010	11010461	vi cá
11010	11010462	việt quất
11010	11010463	vịt quay
11010	11010464	vừng đen
11010	11010465	Vừng rang
11010	11010466	whipping cream
11010	11010467	xá xíu
11010	11010468	xì dầu
11010	11010469	xíu mại
11010	11010470	xoài
11010	11010471	xoài cát
11010	11010472	yến sào
