Category Id	Keyword Id	Keyword
12010	12010000	Artena decor
12010	12010001	Ashley Home
12010	12010002	Bo Concept
12010	12010003	Bolsius
12010	12010004	Chilai
12010	12010005	Decal Amyshop
12010	12010006	Golden gift Việt Nam
12010	12010007	Gốm sứ Bát Tràng
12010	12010008	Gốm sứ Minh Long
12010	12010009	Hoàng Anh gia lai
12010	12010010	IKEA
12010	12010011	Nhà Xinh
12010	12010012	Phố Xinh
12010	12010013	Thế giới tranh đẹp
12010	12010014	Vicdecor
12010	12010015	bàn ăn
12010	12010016	bàn bếp
12010	12010017	bàn ghế
12010	12010018	bàn học
12010	12010019	bàn phấn
12010	12010020	bàn thờ
12010	12010021	bàn trà
12010	12010022	bàn trang điểm
12010	12010023	bếp
12010	12010024	bình gốm
12010	12010025	bồn rửa mặt
12010	12010026	bồn tắm
12010	12010027	cầu thang
12010	12010028	chăn drap gối nệm
12010	12010029	chăn ga
12010	12010030	chân giường
12010	12010031	chậu rửa
12010	12010032	chiếc gương
12010	12010033	cửa chính
12010	12010034	cửa cuốn
12010	12010035	cửa nhôm
12010	12010036	cửa ra vào
12010	12010037	cửa trượt
12010	12010038	decal
12010	12010039	đèn bàn
12010	12010040	đèn chiếu sáng
12010	12010041	đèn chùm
12010	12010042	đèn ngủ
12010	12010043	đồ gỗ
12010	12010044	đồ gốm
12010	12010045	đồng hồ treo tường
12010	12010046	gạch hoa
12010	12010047	gạch ốp lát
12010	12010048	ghế
12010	12010049	ghế bành
12010	12010050	giá sách
12010	12010051	giường
12010	12010052	giường đôi
12010	12010053	giường tầng
12010	12010054	gỗ cẩm
12010	12010055	gỗ lim
12010	12010056	gỗ sồi
12010	12010057	gối nệm
12010	12010058	gốm sứ
12010	12010059	kệ sách
12010	12010060	kệ tivi
12010	12010061	kệ trang trí
12010	12010062	khung ảnh
12010	12010063	khung cửa
12010	12010064	khung tranh
12010	12010065	lò sưởi
12010	12010066	lót sàn
12010	12010067	màn cửa
12010	12010068	nệm
12010	12010069	nệm cao su
12010	12010070	ngói âm dương
12010	12010071	ốp bếp
12010	12010072	ốp tường
12010	12010073	rèm cửa
12010	12010074	rèm cửa sổ
12010	12010075	rèm vải
12010	12010076	sàn gỗ
12010	12010077	sàn nhựa
12010	12010078	sofa
12010	12010079	sofa da
12010	12010080	Sứ Thanh Hoa
12010	12010081	tivi
12010	12010082	tranh dán
12010	12010083	tranh dán tường
12010	12010084	tranh treo
12010	12010085	tủ áo
12010	12010086	tủ bếp
12010	12010087	tủ thờ
12010	12010088	tượng phật
12010	12010089	vòi hoa sen
12010	12010090	xốp dán tường
