Category Id	Keyword Id	Keyword
13000	13000000	Anh ngữ quốc tế
13000	13000001	Anh Văn Hội Việt Mỹ
13000	13000002	Apax English
13000	13000003	Apollo English
13000	13000004	Atlat Địa lý Việt Nam
13000	13000005	Broward College
13000	13000006	Broward College Vietnam
13000	13000007	Cambridge International Examinations A-Level
13000	13000008	Cao đẳng Bách Việt
13000	13000009	Cao đẳng kinh tế đối ngoại
13000	13000010	Cao đẳng kỹ thuật Cao Thắng
13000	13000011	Cao đẳng quốc tế
13000	13000012	Cao đẳng sư phạm Gia Lai
13000	13000013	Cao đẳng sư phạm Hà Giang
13000	13000014	Cao đẳng sư phạm Nghệ An
13000	13000015	cao học
13000	13000016	Chương trình Chất lượng cao
13000	13000017	Cơ Điện tử
13000	13000018	Công nghệ Kỹ thuật
13000	13000019	Công nghệ Kỹ thuật Nhiệt
13000	13000020	Công nghệ Kỹ thuật Ôtô
13000	13000021	công nghệ sinh học
13000	13000022	công nghệ thông tin
13000	13000023	Công nghệ thực phẩm
13000	13000024	công trình khoa học
13000	13000025	công trình nghiên cứu
13000	13000026	công ty tư vấn du học
13000	13000027	Đại học an ninh nhân dân
13000	13000028	Đại học Bắc Kinh
13000	13000029	Đại học Bạc Liêu
13000	13000030	Đại học Bách Khoa
13000	13000031	Đại học Bách Khoa Đà Nẵng
13000	13000032	Đại học Bách Khoa Hà Nội
13000	13000033	Đại học Bách Khoa thành phố Hồ Chí Minh
13000	13000034	Đại học Cambridge
13000	13000035	Đại học Cần Thơ
13000	13000036	Đại học Canterbury
13000	13000037	Đại học Cergy-Pontoise
13000	13000038	Đại học Chicago
13000	13000039	Đại học Công nghệ
13000	13000040	Đại học công nghệ thông tin
13000	13000041	Đại học Công nghệ TP.HCM
13000	13000042	Đại học công nghiệp Hà Nội
13000	13000043	Đại học Công nghiệp thành phố Hồ Chí Minh
13000	13000044	Đại học Công nghiệp Vinh
13000	13000045	Đại học Cornell
13000	13000046	Đại học Đà Lạt
13000	13000047	Đại học Đà Nẵng
13000	13000048	Đại học Dân lập Duy Tân
13000	13000049	Đại học Dân lập Văn Hiến
13000	13000050	Đại học Đông Á
13000	13000051	Đại học Đồng Nai
13000	13000052	Đại học FPT
13000	13000053	Đại học Fulbright Việt Nam
13000	13000054	Đại học Giao thông Vận tải
13000	13000055	Đại học Greenwich
13000	13000056	Đại học Hà Nội
13000	13000057	Đại học Hàn Quốc
13000	13000058	Đại học Hàng hải Việt Nam
13000	13000059	Đại học Hoa Sen
13000	13000060	Đại học Hồng Đức
13000	13000061	Đại học Huế
13000	13000062	Đại học Keuka
13000	13000063	Đại học Khoa Học Tự Nhiên
13000	13000064	Đại học Khoa Học Xã Hội và Vhân Văn
13000	13000065	Đại học Kiên Giang
13000	13000066	Đại học Kiến trúc Đà Nẵng
13000	13000067	Đại học Kinh Doanh và Công Nghệ Hà Nội
13000	13000068	Đại học Kinh tế
13000	13000069	Đại học kinh tế quốc dân
13000	13000070	Đại học kinh tế thành phố Hồ Chí Minh
13000	13000071	Đại học Kinh tế-tài chính TP.HCM
13000	13000072	đại học kỹ thuật
13000	13000073	Đại học Kỹ thuật Công nghiệp
13000	13000074	Đại học Kỹ thuật Swinburne
13000	13000075	Đại học kỹ thuật y tế Hải Dương
13000	13000076	Đại học Lạc Hồng
13000	13000077	Đại học Lâm nghiệp
13000	13000078	Đại học Lâm nghiệp Hà Nội
13000	13000079	Đại học Leicester
13000	13000080	Đại học Lincoln
13000	13000081	Đại học Luật Hà Nội
13000	13000082	Đại học Luật Thành phố Hồ Chí Minh
13000	13000083	Đại học Mở TPHCM
13000	13000084	Đại học Ngân hàng Thành phố Hồ Chí Minh
13000	13000085	đại học ngoại ngữ
13000	13000086	Đại học Ngoại thương
13000	13000087	Đại học Ngoại Thương Hà Nội
13000	13000088	Đại học Ngoại Thương TPHCM
13000	13000089	Đại học Nguyễn Tất Thành
13000	13000090	Đại học Nha Trang
13000	13000091	Đại học Nông Lâm
13000	13000092	Đại học Nông lâm Tp.HCM
13000	13000093	Đại học Northampton
13000	13000094	Đại học Oxford
13000	13000095	Đại học phòng cháy chữa cháy
13000	13000096	Đại học Princeton
13000	13000097	Đại học Quảng Nam
13000	13000098	Đại học Quang Trung
13000	13000099	Đại học quốc gia Hà Nội
13000	13000100	Đại học Quốc gia Singapore
13000	13000101	Đại học quốc gia thành phố Hồ Chí Minh
13000	13000102	Đại học Quốc tế
13000	13000103	Đại học quốc tế Hồng Bàng
13000	13000104	Đại học Quốc tế Sài Gòn
13000	13000105	Đại học quốc tế TP.HCM
13000	13000106	Đại học Quy Nhơn
13000	13000107	Đại học RMIT Việt Nam
13000	13000108	Đại học Sài Gòn
13000	13000109	Đại học St. Petersburg
13000	13000110	Đại học Sư phạm
13000	13000111	Đại học Sư phạm Hà Nội
13000	13000112	Đại học Sư phạm Huế
13000	13000113	Đại học Sư phạm Kỹ thuật Hưng Yên
13000	13000114	Đại học Sư phạm Kỹ thuật Nam Định
13000	13000115	Đại học Sư phạm Kỹ thuật Thành phố Hồ Chí Minh
13000	13000116	Đại học Sư phạm Kỹ thuật Vinh
13000	13000117	Đại học Sư phạm Tp.HCM
13000	13000118	Đại học Sunderland
13000	13000119	Đại học Swinburne
13000	13000120	Đại học Tài chính Marketing
13000	13000121	Đại học tây nguyên
13000	13000122	Đại học Thái Nguyên
13000	13000123	Đại học Thăng Long
13000	13000124	Đại học Thủ Dầu Một
13000	13000125	Đại học thương mại
13000	13000126	Đại học Thủy Lợi
13000	13000127	Đại học Tiền Giang
13000	13000128	Đại Học Tôn Đức Thắng
13000	13000129	Đại học tổng hợp Missouri
13000	13000130	Đại học Trà Vinh
13000	13000131	Đại học Turku
13000	13000132	Đại học Úc
13000	13000133	Đại học Văn Lang
13000	13000134	Đại học Vinh
13000	13000135	Đại học VinUni
13000	13000136	Đại học xây dựng
13000	13000137	Đại học Xây dựng miền Trung
13000	13000138	Đại học y dược
13000	13000139	Đại học Y Dược Cần Thơ
13000	13000140	Đại học Y Dược Hải Phòng
13000	13000141	Đại học Y Dược Thái Bình
13000	13000142	Đại học Y Dược Thành phố Hồ Chí Minh
13000	13000143	Đại học y Hà Nội
13000	13000144	Đại học y Hải Phòng
13000	13000145	Đại học Y khoa Vinh
13000	13000146	Đại học y tế công cộng
13000	13000147	Đại học Y Tokyo
13000	13000148	Đại học Yale
13000	13000149	Đại học Yonsei
13000	13000150	đại số
13000	13000151	dạy học Tiếng Việt
13000	13000152	dạy kèm
13000	13000153	dạy lái xe
13000	13000154	dạy nghề
13000	13000155	dạy Tiếng Anh
13000	13000156	dạy Toán
13000	13000157	dạy Văn
13000	13000158	Điện tử viễn thông
13000	13000159	điều dưỡng
13000	13000160	du học
13000	13000161	Du học Nhật Bản
13000	13000162	Embassy Education
13000	13000163	EMG Education
13000	13000164	Fulbright
13000	13000165	FX 500 VNPlus
13000	13000166	FX 570 ES
13000	13000167	FX 570 ES Plus
13000	13000168	FX 570VN Plus
13000	13000169	FX 580VNX
13000	13000170	GIẢNG DẠY BẰNG TIẾNG ANH
13000	13000171	Giáo dục công dân
13000	13000172	Giáo dục dinh dưỡng
13000	13000173	Giáo dục nghề nghiệp
13000	13000174	Giáo dục quốc tế
13000	13000175	Giáo dục thường xuyên
13000	13000176	Hàn Quốc học
13000	13000177	Harvard
13000	13000178	Hóa học 9
13000	13000179	Hóa học Quốc tế
13000	13000180	học bổng
13000	13000181	học bổng bán phần
13000	13000182	Học bổng Chevening
13000	13000183	Học bổng chính phủ Australia
13000	13000184	Học bổng Dạy nghề Toyota
13000	13000185	học bổng du học
13000	13000186	Học bổng khuyến học
13000	13000187	Học bổng quốc tế
13000	13000188	học bổng thạc sĩ
13000	13000189	học bổng tiến sĩ
13000	13000190	học bổng toàn phần
13000	13000191	Học bổng Vallet
13000	13000192	học Ngoại ngữ
13000	13000193	học online
13000	13000194	Học Tiếng Anh
13000	13000195	học viện an ninh nhân dân
13000	13000196	Học viện ANND
13000	13000197	học viện báo chí và tuyên truyền
13000	13000198	học viện biên phòng
13000	13000199	học viện cảnh sát nhân dân
13000	13000200	học viện công nghệ bưu chính viễn thông
13000	13000201	Học viện CSND
13000	13000202	Học viện G.A.P
13000	13000203	học viện hậu cần
13000	13000204	Học viện Khoa học Quân sự
13000	13000205	học viện kỹ thuật massachusetts
13000	13000206	học viện kỹ thuật mật mã
13000	13000207	học viện kỹ thuật quân sự
13000	13000208	học viện ngân hàng
13000	13000209	Học viện Ngoại giao
13000	13000210	học viện quân y
13000	13000211	Học viện STEM
13000	13000212	học viện tài chính
13000	13000213	Học viện Teky
13000	13000214	hội thảo du học
13000	13000215	hướng nghiệp
13000	13000216	ielts
13000	13000217	IIG Việt Nam
13000	13000218	kế toán
13000	13000219	Khoa Giáo dục thể chất
13000	13000220	khoa học máy tính
13000	13000221	khoa học tự nhiên
13000	13000222	khoa học xã hội
13000	13000223	Khoa Luật
13000	13000224	Khoa Toán
13000	13000225	khối A
13000	13000226	Khối A1
13000	13000227	khối B
13000	13000228	khối C
13000	13000229	khối D
13000	13000230	khối D1
13000	13000231	khối V
13000	13000232	Kinh Doanh Quốc Tế
13000	13000233	Kỳ thi tay nghề ASEAN
13000	13000234	Kỳ thi THPT quốc gia
13000	13000235	kỹ thuật cơ khí
13000	13000236	Kỹ thuật Máy tính
13000	13000237	Kỹ thuật Môi trường
13000	13000238	kỹ thuật xây dựng
13000	13000239	Liên Kết Quốc Tế
13000	13000240	logistic
13000	13000241	luận án
13000	13000242	luận văn
13000	13000243	mầm non
13000	13000244	mầm non quốc tế
13000	13000245	mầm non Sunshine Maple Bear
13000	13000246	mầm non Tuổi thơ
13000	13000247	mẫu giáo
13000	13000248	Minecraft Hackathon
13000	13000249	môn Địa
13000	13000250	môn hóa
13000	13000251	Môn Ngoại ngữ
13000	13000252	môn Sinh
13000	13000253	môn Sử
13000	13000254	Môn thi Lịch sử
13000	13000255	Môn Tiếng Anh
13000	13000256	Môn tiếng Việt
13000	13000257	Môn Vẽ
13000	13000258	National Liberal Arts College
13000	13000259	Ngành Ngôn Ngữ Anh
13000	13000260	Ngành Răng
13000	13000261	Ngành Răng Hàm Mặt
13000	13000262	Ngành Sư phạm tiếng Anh
13000	13000263	ngành Vật Lý
13000	13000264	ngành y
13000	13000265	nghiên cứu khoa học
13000	13000266	Ngôn Ngữ Anh
13000	13000267	ngôn ngữ học
13000	13000268	Ngôn ngữ Italia
13000	13000269	Ngôn Ngữ Nhật
13000	13000270	Ngôn ngữ Tây Ban Nha
13000	13000271	Ngôn ngữ Trung
13000	13000272	ngữ văn
13000	13000273	Odon Vallet
13000	13000274	Olympic Hóa học quốc tế
13000	13000275	Olympic Quốc tế
13000	13000276	Olympic Sinh học
13000	13000277	Olympic Sinh học Quốc tế
13000	13000278	Olympic Tiếng Anh
13000	13000279	Olympic tiếng Anh học sinh
13000	13000280	Olympic Toán
13000	13000281	olympic vật lý quốc tế
13000	13000282	Quản Trị Du Lịch
13000	13000283	quản trị kinh doanh
13000	13000284	Quỹ học bổng
13000	13000285	Quỹ Lawrence S. Ting
13000	13000286	Quỹ TVF
13000	13000287	RMIT Việt Nam
13000	13000288	Saigon Innovation Hub
13000	13000289	Saigon Times Foundation
13000	13000290	sinh học
13000	13000291	Sư phạm Âm nhạc
13000	13000292	Sư phạm Hóa
13000	13000293	Sư phạm Hóa học
13000	13000294	Sư phạm kỹ thuật TP.HCM
13000	13000295	sư phạm mầm non
13000	13000296	Sư phạm Mỹ thuật
13000	13000297	Sư Phạm tiếng Anh
13000	13000298	Sư phạm Tin học
13000	13000299	Sư phạm Toán
13000	13000300	Sư Phạm TPHCM
13000	13000301	suất học bổng
13000	13000302	tâm lý học
13000	13000303	thạc sĩ
13000	13000304	Thi Toán
13000	13000305	thiên văn học
13000	13000306	thiết kế đồ họa
13000	13000307	tiến sĩ
13000	13000308	Tiếng Anh
13000	13000309	Tiếng Anh Học Thuật
13000	13000310	tiếng Anh TOEIC
13000	13000311	tiếng Đức
13000	13000312	tiếng Pháp
13000	13000313	Tiếng Pháp Thương Mại
13000	13000314	tiếng trung
13000	13000315	tin học văn phòng
13000	13000316	Tổ chức Room To Read
13000	13000317	Tổ chức VinaCapital Foundation
13000	13000318	toán học ứng dụng
13000	13000319	toefl
13000	13000320	toefl ibt
13000	13000321	Triển lãm du học
13000	13000322	trung cấp chuyên nghiệp
13000	13000323	Trung cấp Sư phạm
13000	13000324	Trung tâm Anh ngữ ILA
13000	13000325	trung tâm giáo dục thường xuyên
13000	13000326	trung tâm ngoại ngữ
13000	13000327	Trường Kỹ thuật
13000	13000328	Trường Mầm non Rainbow
13000	13000329	Trường Mầm non Tân Giang
13000	13000330	trường sỹ quan pháo binh
13000	13000331	trường sỹ quan thông tin
13000	13000332	tư vấn du học
13000	13000333	Văn hóa học
13000	13000334	vật lý lượng tử
13000	13000335	Viện công nghệ California
13000	13000336	Viện Đào tạo quốc tế
13000	13000337	VN-570 ES Plus
13000	13000338	VN-570ES Plus
13000	13000339	World Mathematics Olympiad
13000	13000340	Y Đa Khoa
13000	13000341	Y học dự phòng
13000	13000342	Young Leaders
