Category Id	Keyword Id	Keyword
2010	2010000	3CE
2010	2010000	AHA
2010	2010000	Anessa
2010	2010000	BBIA
2010	2010000	BHA
2010	2010000	Bioderma
2010	2010000	Cattier
2010	2010000	Chloe
2010	2010000	Clinique
2010	2010000	DHC
2010	2010000	Dior
2010	2010000	Estee Lauder
2010	2010000	Etude House
2010	2010000	Hada Labo
2010	2010000	Innisfree
2010	2010000	Kiehl's
2010	2010000	La Roche Posay
2010	2010000	Lancome
2010	2010000	Laneige
2010	2010000	Lixibox
2010	2010000	MAC
2010	2010000	Mamonde
2010	2010000	Maybelline
2010	2010000	Maybelline New York
2010	2010000	Menard
2010	2010000	Missha
2010	2010000	Murad
2010	2010000	Naris
2010	2010000	Neutrogena
2010	2010000	Nivea
2010	2010000	NYX
2010	2010000	Ohui
2010	2010000	Red Velvet
2010	2010000	Revlon
2010	2010000	Rohto
2010	2010000	Shiseido
2010	2010000	Shu Uemura
2010	2010000	Shulwhasoo
2010	2010000	SK II
2010	2010000	Skinfood
2010	2010000	The body shop
2010	2010000	The face shop 
2010	2010000	Tom Ford
2010	2010000	Vaseline
2010	2010000	Vichy
2010	2010000	Victoria’s Secret
2010	2010000	White Doctors
2010	2010000	Yves Rocher
2010	2010000	BB Cream
2010	2010000	bông tẩy trang
2010	2010000	cám gạo
2010	2010000	CC cream
2010	2010000	chăm sóc móng
2010	2010000	chăm sóc tóc
2010	2010000	chỉ Collagen
2010	2010000	chì kẻ mày
2010	2010000	chống lão hóa
2010	2010000	cọ kẻ mắt
2010	2010000	cọ trang điểm
2010	2010000	collagen
2010	2010000	collagen cho da
2010	2010000	concealer
2010	2010000	cream
2010	2010000	dầu dừa
2010	2010000	dầu gội đầu
2010	2010000	dầu Jojoba
2010	2010000	dầu ô liu
2010	2010000	dầu xả
2010	2010000	đồ trang điểm
2010	2010000	dụng cụ trang điểm
2010	2010000	dược mỹ phẩm
2010	2010000	dưỡng thể
2010	2010000	dưỡng tóc
2010	2010000	dưỡng trắng
2010	2010000	eyeliner
2010	2010000	foundation
2010	2010000	hair lotion
2010	2010000	kẻ lông mày
2010	2010000	kem che khuyết điểm
2010	2010000	kem chống nắng
2010	2010000	kem chống nắng kiềm dầu
2010	2010000	kem dưỡng
2010	2010000	kem dưỡng ẩm
2010	2010000	kem dưỡng da
2010	2010000	kem lót
2010	2010000	kem nền
2010	2010000	kem Trị Mụn
2010	2010000	kẹp bấm mi
2010	2010000	khử mùi
2010	2010000	kiềm dầu
2010	2010000	làm sạch da
2010	2010000	lăn kim
2010	2010000	lăn nách
2010	2010000	lông mi giả
2010	2010000	makeup
2010	2010000	mascara
2010	2010000	mặt nạ
2010	2010000	mặt nạ đất sét
2010	2010000	mặt nạ giấy
2010	2010000	mặt nạ lột
2010	2010000	mặt nạ ngủ
2010	2010000	matte lipstick
2010	2010000	màu mắt
2010	2010000	màu nhuộm
2010	2010000	máy massage da mặt
2010	2010000	máy rửa mặt
2010	2010000	máy thoa dưỡng chất
2010	2010000	máy xông hơi mặt
2010	2010000	miếng dán lót mí
2010	2010000	mờ đốm nâu
2010	2010000	mờ nám
2010	2010000	mờ nếp nhăn
2010	2010000	mờ quầng thâm mắt
2010	2010000	mờ tàn nhang
2010	2010000	muối Epsom
2010	2010000	muối tắm
2010	2010000	mỹ phẩm
2010	2010000	Mỹ Phẩm Cao Cấp
2010	2010000	Mỹ Phẩm Đắt Tiền
2010	2010000	mỹ phẩm làm đẹp
2010	2010000	mỹ phẩm thiên nhiên
2010	2010000	ngăn rụng tóc
2010	2010000	nước hoa
2010	2010000	nước hoa hồng
2010	2010000	phấn bột
2010	2010000	phấn highlight
2010	2010000	phấn má hồng
2010	2010000	phấn mắt
2010	2010000	phấn nền
2010	2010000	phấn phủ
2010	2010000	primer
2010	2010000	retinol
2010	2010000	Sáng da
2010	2010000	se khít lỗ chân lông
2010	2010000	serum
2010	2010000	son
2010	2010000	son bóng
2010	2010000	son cam
2010	2010000	son cam đào
2010	2010000	son cam đất
2010	2010000	son cam sữa
2010	2010000	son đỏ
2010	2010000	son đỏ cam
2010	2010000	son đỏ đất
2010	2010000	son đỏ rượu
2010	2010000	son dưỡng
2010	2010000	son dưỡng không màu
2010	2010000	son dưỡng môi
2010	2010000	son môi
2010	2010000	son tím
2010	2010000	sữa rửa mặt
2010	2010000	sữa tắm
2010	2010000	tẩy lông
2010	2010000	tẩy tế bào chết
2010	2010000	tẩy trang
2010	2010000	thiết bị làm đẹp
2010	2010000	thuốc nhuộm tóc
2010	2010000	Tinh Bột Nghệ
2010	2010000	tinh dầu
2010	2010000	toner
2010	2010000	trang điểm
2010	2010000	trang điểm mắt
2010	2010000	trang điểm mặt
2010	2010000	trang điểm môi
2010	2010000	Trẻ Hóa Da
2010	2010000	trị gàu
2010	2010000	trị mụn
2010	2010000	trị nám
2010	2010000	trị sẹo lồi
2010	2010000	trị thâm
2010	2010000	triệt lông
2010	2010000	triệt lông vĩnh viễn
2010	2010000	waxing
2010	2010000	xịt khoáng
2010	2010000	xóa nhăn
