Category Id	Keyword Id	Keyword
4030	4030000	Adam Sandler
4030	4030001	Allan Starski
4030	4030002	Amanda Seyfried
4030	4030003	Amber Heard
4030	4030004	An Nguy
4030	4030005	Andrzej Wajda
4030	4030006	Angelababy
4030	4030007	Angelina Jolie
4030	4030008	August Walker
4030	4030009	Băng Di
4030	4030010	Bảo Thanh
4030	4030011	Ben Affleck
4030	4030012	Bernardo Bertolucci
4030	4030013	Brad Bird
4030	4030014	Bradley Cooper
4030	4030015	Brie Larson
4030	4030016	Bruce Willis
4030	4030017	Bryce Dallas Howard
4030	4030018	Bùi Bài Bình
4030	4030019	Cao Thái Hà
4030	4030020	Cao Thúy Nhi
4030	4030021	Cao Vỹ Quang
4030	4030022	Cát Phượng
4030	4030023	Cate Blanchett
4030	4030024	Chân Tử Đan
4030	4030025	Channing Tatum
4030	4030026	Charlie Nguyễn
4030	4030027	Châu Nhuận Phát
4030	4030028	Châu Tấn
4030	4030029	Châu Tinh Trì
4030	4030030	Chris Evans
4030	4030031	Chris Hemsworth
4030	4030032	Chris Pratt
4030	4030033	Christian Bale
4030	4030034	Christopher McQuarrie
4030	4030035	Chu Nhất Long
4030	4030036	Chúc Tự Đan
4030	4030037	Chương Tử Di
4030	4030038	Claire Foy
4030	4030039	Claudia Kim
4030	4030040	Cổ Thiên Lạc
4030	4030041	Colin Farrell
4030	4030042	Colin Firth
4030	4030043	Corin Hardy
4030	4030044	Củng Lợi
4030	4030045	Dakota Johnson
4030	4030046	Damien Chazelle
4030	4030047	Đặng Siêu
4030	4030048	Daniel Craig
4030	4030049	Daniel Radcliffe
4030	4030050	David Wenham
4030	4030051	David Yates
4030	4030052	Denzel Washington
4030	4030053	Địch Lệ Nhiệt Ba
4030	4030054	Đinh Y Nhung
4030	4030055	Dương Khiết
4030	4030056	Dương Mịch
4030	4030057	Eddie Redmayne
4030	4030058	Emma Stone
4030	4030059	Evangeline Lilly
4030	4030060	ewan mcgregor
4030	4030061	Ezra Miller
4030	4030062	Francois Negret
4030	4030063	Gal Gadot
4030	4030064	Han Ji Min
4030	4030065	Hannah John-Kamen
4030	4030066	Harvey Weinstein
4030	4030067	Heath Ledger
4030	4030068	Henry Cavill
4030	4030069	Hồ Ca
4030	4030070	Hồ Định Hân
4030	4030071	Hoắc Kiến Hoa
4030	4030072	Hồng Ánh
4030	4030073	Hồng Diễm
4030	4030074	Hứa Vĩ Văn
4030	4030075	Hugh Jackman
4030	4030076	Huỳnh Hiểu Minh
4030	4030077	Huỳnh Tông Trạch
4030	4030078	Hyun Bin
4030	4030079	Jake Gyllenhaal
4030	4030080	James Cameron
4030	4030081	James Gunn
4030	4030082	James Wan
4030	4030083	jang dong gun
4030	4030084	Jang Hyuk
4030	4030085	Jared Leto
4030	4030086	Jason Momoa
4030	4030087	Jason Statham
4030	4030088	Jeffrey Scott
4030	4030089	Jennifer Lawrence
4030	4030090	Jeremy Renner
4030	4030091	Jessica Chastain
4030	4030092	Joaquin Phoenix
4030	4030093	Johnny Depp
4030	4030094	Jon M. Chu
4030	4030095	Jonas Bloquet
4030	4030096	Joo Ji Hoon
4030	4030097	Josh Brolin
4030	4030098	Jovan Adepo
4030	4030099	Jude Law
4030	4030100	Jun Vũ
4030	4030101	Jung Hae In
4030	4030102	Kaity Nguyễn
4030	4030103	Kang Ha Ri
4030	4030104	Kathy Uyên
4030	4030105	Kawaii Tuấn Anh
4030	4030106	Keanu Reeves
4030	4030107	Kelly Marie Tran
4030	4030108	Kevin Feige
4030	4030109	Khả Ngân
4030	4030110	Khả Như
4030	4030111	Khải Anh
4030	4030112	Khương Ngọc
4030	4030113	Kiều Minh Tuấn
4030	4030114	Kim Dong Wook
4030	4030115	Kim Hee Sun
4030	4030116	Kim Hyun Joong
4030	4030117	Kim Ji Won
4030	4030118	Kim Jin Hyuk
4030	4030119	Kim Mi So
4030	4030120	Kim Min Jung
4030	4030121	Kim Soo Hyun
4030	4030122	Kim Tae Ri
4030	4030123	Kristen Stewart
4030	4030124	Kristen Wiig
4030	4030125	Kwon Sang Woo
4030	4030126	Lâm Canh Tân
4030	4030127	Lam Khiết Anh
4030	4030128	Lâm Tâm Như
4030	4030129	Lee Byung Hun
4030	4030130	Lee Dong Wook
4030	4030131	Lee Jong Suk
4030	4030132	Lee Jun Ki
4030	4030133	Lee Min Ho
4030	4030134	Lee Seung Gi
4030	4030135	Lee Young Ae
4030	4030136	Leon Quang Lê
4030	4030137	Liên Bỉnh Phát
4030	4030138	Lily James
4030	4030139	Lục Tiểu Linh Đồng
4030	4030140	Lương Đình Dũng
4030	4030141	Lương Thế Thành
4030	4030142	Lương Triều Vỹ
4030	4030143	Lưu Diệc Phi
4030	4030144	Lưu Đức Hoa
4030	4030145	Lưu Gia Linh
4030	4030146	Lưu Khải Uy
4030	4030147	Lý Băng Băng
4030	4030148	Lý Liên Kiệt
4030	4030149	Lý Minh Thắng
4030	4030150	Lý Nhã Kỳ
4030	4030151	Lý Thái Dũng
4030	4030152	Lý Tiểu Long
4030	4030153	Ma Dong Seok
4030	4030154	Mã Tư Thuần
4030	4030155	Mai Hồng Phong
4030	4030156	Mai Tài Phến
4030	4030157	Mai Thế Hiệp
4030	4030158	Mai Thu Huyền
4030	4030159	Mạnh Trường
4030	4030160	Margot Robbie
4030	4030161	Maria Schneider
4030	4030162	Mark Wahlberg
4030	4030163	Marlon Brando
4030	4030164	Meryl Streep
4030	4030165	Michael Douglas
4030	4030166	Michael Keaton
4030	4030167	Michelle Pfeiffer
4030	4030168	Nam Ji Hyun
4030	4030169	Nam Joo Hyuk
4030	4030170	Natalie Portman
4030	4030171	Ngô Cẩn Ngôn
4030	4030172	Ngô Lỗi
4030	4030173	Ngô Thanh Vân
4030	4030174	Ngọc Thanh Tâm
4030	4030175	Nhan Phúc Vinh
4030	4030176	Nicole Kidman
4030	4030177	Niki Caro
4030	4030178	Ninh Dương Lan Ngọc
4030	4030179	NSƯT Bùi Cường
4030	4030180	Olga Kurylenko
4030	4030181	Park Bo Gum
4030	4030182	Park Min Young
4030	4030183	Park Seo Joon
4030	4030184	Park Shin Hye
4030	4030185	Paul Rudd
4030	4030186	Penelope Cruz
4030	4030187	Peter Parker
4030	4030188	Phạm Băng Băng
4030	4030189	Phạm Văn Khoa
4030	4030190	Phùng Thiệu Phong
4030	4030191	Phương Anh Đào
4030	4030192	Phương Oanh
4030	4030193	Quách Ngọc Ngoan
4030	4030194	Quentin Tarantino
4030	4030195	Rebecca Ferguson
4030	4030196	Rian Johnson
4030	4030197	Robert Downey Jr
4030	4030198	Robie Trường
4030	4030199	Roland Nguyễn Nhân
4030	4030200	Rowan Atkinson
4030	4030201	Ryan Gosling
4030	4030202	Ryan Reynolds
4030	4030203	Sandra Bullock
4030	4030204	Scarlett Johansson
4030	4030205	Sebastían Lelio
4030	4030206	Sebastian Stan
4030	4030207	Seo Kang Joon
4030	4030208	Shane Black
4030	4030209	Sharon Tate
4030	4030210	Simon Pegg
4030	4030211	So Ji Sub
4030	4030212	Song Joong Ki
4030	4030213	Steven Spielberg
4030	4030214	Sylvester Stallone
4030	4030215	Taew Natapohn
4030	4030216	Taissa Farmiga
4030	4030217	Thanh Thức
4030	4030218	Thu Quỳnh
4030	4030219	Thúy Ngân
4030	4030220	Tobey Maguire
4030	4030221	Todd Phillips
4030	4030222	Tom Cruise
4030	4030223	Tom Hardy
4030	4030224	Tom Holland
4030	4030225	Tôn Lệ
4030	4030226	Trần Khôn
4030	4030227	Trần Kiều Ân
4030	4030228	Trần Vỹ Đình
4030	4030229	Triệu Hựu Đình
4030	4030230	Triệu Lệ Dĩnh
4030	4030231	Triệu Văn Trác
4030	4030232	Triệu Vy
4030	4030233	Trịnh Sảng
4030	4030234	Vân Dung
4030	4030235	Vanessa Kirby
4030	4030236	Vera Farmiga
4030	4030237	Victor Vũ
4030	4030238	Vin Diesel
4030	4030239	Vu Chính
4030	4030240	Vương Hạc Đệ
4030	4030241	Woody Allen
4030	4030242	Wyatt Russell
4030	4030243	Xa Thi Mạn
4030	4030244	Yaya Urassaya
4030	4030245	Zoe Saldana
4030	4030246	Cannes
4030	4030247	Emmy
4030	4030248	Oscar
4030	4030249	HBO
4030	4030250	DC Comics
4030	4030251	Disney
4030	4030252	Dreamworks
4030	4030253	Hãng FOX
4030	4030254	Hãng phim hoạt hình VinTaTa
4030	4030255	hãng phim truyện việt nam
4030	4030256	Marvel Studios
4030	4030257	Paramount Pictures
4030	4030258	Sony pictures entertainment
4030	4030259	TVB
4030	4030260	Twentieth Century Fox
4030	4030261	Universal Pictures
4030	4030262	Walt Disney
4030	4030263	Warner Bros
4030	4030264	phim Ấn Độ
4030	4030265	phim Bollywood
4030	4030266	phim bom tấn
4030	4030267	phim ca nhạc
4030	4030268	phim chiến tranh
4030	4030269	phim cổ trang
4030	4030270	phim dài tập
4030	4030271	phim đam mỹ
4030	4030272	phim điện ảnh
4030	4030273	phim hài
4030	4030274	Phim Hàn
4030	4030275	phim hành động
4030	4030276	phim Hoa ngữ
4030	4030277	phim hoạt hình
4030	4030278	phim hollywood
4030	4030279	phim khoa học
4030	4030280	phim khoa học viễn tưởng
4030	4030281	phim kiếm hiệp
4030	4030282	phim kinh dị
4030	4030283	phim kinh điển
4030	4030284	phim lãng mạn
4030	4030285	phim lịch sử
4030	4030286	phim nghệ thuật
4030	4030287	phim nước ngoài
4030	4030288	phim phiêu lưu
4030	4030289	phim sitcom
4030	4030290	phim tài liệu
4030	4030291	phim tâm lý xã hội
4030	4030292	phim Thái Lan
4030	4030293	phim tội phạm
4030	4030294	phim Trung Quốc
4030	4030295	phim truyền hình
4030	4030296	Phim Việt
4030	4030297	Phim Việt Nam đương đại
