Category Id	Keyword Id	Keyword
6020	6020000	Apple
6020	6020001	BlackBerry
6020	6020002	Bphone
6020	6020003	HTC
6020	6020004	Huawei
6020	6020005	Kindle
6020	6020006	LG
6020	6020007	Mobell
6020	6020008	Motorola
6020	6020009	Nokia
6020	6020010	Oppo
6020	6020011	Qualcomm
6020	6020012	Realme
6020	6020013	Samsung
6020	6020014	Sony
6020	6020015	Vertu
6020	6020016	Viettel
6020	6020017	Vivo
6020	6020018	Vsmart
6020	6020019	Vtel
6020	6020020	WIKO
6020	6020021	Xiaomi
6020	6020022	Android
6020	6020023	Bphone 2
6020	6020024	Bphone 3
6020	6020025	Bphone 3 Pro
6020	6020026	cáp sạc điện thoại
6020	6020027	Điện thoại 2 SIM
6020	6020028	Galaxy Note
6020	6020029	Galaxy Note 7
6020	6020030	Galaxy Note 8
6020	6020031	Galaxy Note 9
6020	6020032	Galaxy S10
6020	6020033	Galaxy S9
6020	6020034	Galaxy S9 Plus
6020	6020035	giá đỡ điện thoại
6020	6020036	iOS 10
6020	6020037	iOS 11
6020	6020038	iOS 12
6020	6020039	iOS 9
6020	6020040	ipad
6020	6020041	iphone
6020	6020042	Iphone 11
6020	6020043	Iphone 11 pro
6020	6020044	Iphone 11 pro max
6020	6020045	iPhone 2 SIM
6020	6020046	iPhone 5S
6020	6020047	iPhone 6
6020	6020048	iPhone 6S
6020	6020049	iPhone 7
6020	6020050	iPhone 8
6020	6020051	iPhone 8 Plus
6020	6020052	iPhone cũ
6020	6020053	iPhone X
6020	6020054	iPhone Xr
6020	6020055	iPhone Xs
6020	6020056	iPhone Xs Max
6020	6020057	ốp lưng điện thoại
6020	6020058	OPPO F11 Pro
6020	6020059	sạc dự phòng
6020	6020060	sạc dự phòng xiaomi
6020	6020061	Samsung Galaxy A30
6020	6020062	Samsung Galaxy A50
6020	6020063	Samsung Galaxy J7
6020	6020064	Samsung Galaxy J7 Pro
6020	6020065	sim
6020	6020066	thẻ nạp tiền điện thoại
6020	6020067	Vivo Y91C
6020	6020068	Vsmart Active
6020	6020069	Windows Phone
6020	6020070	Xiaomi Mi 8
6020	6020071	Xiaomi Mipad 4
6020	6020072	Xiaomi Redmi
