Category Id	Keyword Id	Keyword
6030	6030000	airpod
6030	6030001	camera
6030	6030002	camera giám sát
6030	6030003	galaxy buds
6030	6030004	headphone
6030	6030005	kính thực tế ảo VR
6030	6030006	loa
6030	6030007	loa bluetooth
6030	6030008	loa bluetooth mini
6030	6030009	loa cong
6030	6030010	loa máy tính
6030	6030011	loa soundbar
6030	6030012	loa thùng
6030	6030013	loa vali
6030	6030014	máy chiếu
6030	6030015	máy ghi âm
6030	6030016	máy nghe nhạc mp3
6030	6030017	máy nghe nhạc mp4
6030	6030018	tai nghe
6030	6030019	tai nghe bluetooth
6030	6030020	tai nghe đàm thoại
6030	6030021	tai nghe gaming
6030	6030022	tai nghe nhét tai
6030	6030023	tai nghe thể thao
